{
"0": "음향 효과", 
"1": "게임플레이 옵션", 
"2": "그래픽 설정", 
"3": "입력", 
"4": "기타", 
"5": "음악 볼륨:%d", 
"6": "효과음:%d", 
"7": "해상도", 
"8": "전체화면", 
"9": "FPS 제한 없음", 
"10": "FPS 보이게 하기(왼쪽 하단)", 
"12": "오프셋 마법사 실행", 
"13": "설정된 오프셋:%+d", 
"14": "설정된 오프셋:%+d", 
"15": "키 모드 칼럼 너비:", 
"16": "고정 칼럼 너비", 
"17": "고정 패널 너비", 
"18": "DJ 디스크 위치를 왼쪽으로", 
"19": "스토리보드 숨기기", 
"20": "가상 키보드 숨기기", 
"21": "풀 사이즈 키보드 적용", 
"22": "키 설정 초기화", 
"23": "채보 목록 다시 로드하기", 
"24": "웹사이트 방문하기", 
"25": "언어", 
"26": "시스템 볼륨", 
"27": "키 모드 칼럼 위치:%d%%", 
"28": "업데이트 확인", 
"29": "3D 칼럼 적용", 
"30": "칼럼 각도:%d", 
"31": "안드로이드 키보드 활성화", 
"32": "풀 그래픽 효과", 
"33": "게임중 판정 오차 바 보이기", 
"34": "키사운드 활성화", 
"35": "커스텀 키사운드", 
"36": "로그아웃", 
"37": "현재 스킨", 
"38": "세로 모드 사용하기", 
"39": "터치스크린 활성화", 
"40": "종료", 
"41": "칼럼 라인 숨기기", 
"42": "오디오 성능", 
"43": "도움말", 
"44": "실험실", 
"45": "새로운 키사운드 엔진 사용하기", 
"46": "의견 보내기 & 버그 신고", 
"47": "키 모드 UI 미리보기", 
"48": "네트워크", 
"49": "서버", 
"50": "음악 볼륨", 
"51": "효과음 볼륨", 
"52": "히트 오프셋", 
"53": "그래픽 오프셋", 
"54": "칼럼 각도", 
"55": "커스텀 채보 경로:", 
"56": "플레이 화면 회전", 
"57": "ASIO 사용하기", 
"58": "수정 전 타이틀 표시하기", 
"59": "키 모드 에디터 스크롤 끄기", 
"60": "버전", 
"61": "플랫폼", 
"62": "곡 리스트 그리드뷰 모드", 
"63": "OpenSL 사용하기", 
"64": "스킨 관리", 
"65":"Inversed mouse wheel",
"66": "Enable Key Sound at end",
"67": "Select to change binding",
"68": "Setup Key for:",
"69": "Store Server Host",
"70": "Lock Play FPS",
"71": "Refresh Rate",
"72": "Graphic Effect",
"73": "Scene Scale",
"74": "3D Motion Compensation",
"75": "3D Thickness Compensation",
"76": "Cover Position",
"77": "Skip keysound preview",
"78": "Hold Adjustment",
"79": "Stop On Hit",
"80": "Stop On Judge",
"81": "Snap to Judge",
"82": "Hit Distance",
"83": "Backup",
"84": "Note Appearance",
"85": "Show Touch Point",
"86": "ISSUES\nREPORT",
"100": "곡 삭제", 
"101": "곡 목록 열기", 
"102": "채보 삭제", 
"103": "로컬 기록 삭제하기", 
"104": "스토어에서 보기", 
"105": "랭크되지 않음", 
"106": "모드 선택", 
"107": "게임모드 선택", 
"108": "터치하고 검색", 
"109": "채보 편집", 
"110": "이 곡으로 새로운 채보 만들기", 
"111": "더 많은 채보 얻기", 
"112": "새로운 채보 만들기", 
"113": "뒤로", 
"114": "랭킹", 
"115": "옵션", 
"116": "로컬", 
"117": "진행", 
"118": "완료", 
"119": "일시정지", 
"120": "동의", 
"121": "난이도", 
"122": "전 채보 보기", 
"123": "웹사이트에서 보기", 
"124": "이용 불가", 
"125": "미등록", 
"126": "복사 및 수정", 
"127": "로컬 랭킹", 
"128": "온라인 랭킹", 
"129": "최고 기록", 
"130": "스크롤 속도", 
"131": "다운로드 목록", 
"132": "검색", 
"133": "차트를 불러오는 방법", 
"134": "음원을 OGG로 변환중입니다", 
"135": "정말로 이 채보를 삭제하시겠습니까?", 
"136": "정말로 이 곡을 삭제하시겠습니까?", 
"137": "차트 불러오기", 
"138": "다운로드 완료", 
"139": "차트를 다음으로 공유...", 
"140": "새로운 컬렉션 생성", 
"141": "정말로 이 컬렉션을 삭제하시겠습니까?", 
"142": "추가 완료", 
"143": "제거 완료", 
"144": "모든 채보", 
"145": "검색란", 
"146": "메세지 리스트", 
"147": "메세지 없음", 
"148": "노래 합류됨", 
"149": "채보 합류됨", 
"150": "제거", 
"151": "공유", 
"170": "친구 리스트", 
"171": "플레이어 검색", 
"172": "메세지 보내기", 
"173": "방 초대", 
"174": "새 채보를 위한 음성", 
"175":"Import skin",
"176": "Comments",
"177": "세계 랭킹", 
"178": "곡", 
"179": "리플레이 보기", 
"180": "Weekly",
"181": "Mute",
"182": "Share as Song Pack",
"183": "Share as Chart Pack",
"184": "Watch Live Stream",
"185": "Stop Watch",
"186": "Live Streaming",
"187": "Start Live",
"188": "Finish Live",
"200": "Marlo의 자동 플레이", 
"201": "랜덤", 
"202": "미러", 
"203": "BPM 스크롤 사용안함", 
"204": "20% 가속", 
"205": "50% 가속", 
"206": "히든", 
"207": "원래 판정으로 게임하기", 
"208": "20% 감속", 
"209": "불사의 비결?...안죽으면 되오.", 
"210": "매치에서도 똑같은 판정을 사용하기", 
"211": "Play with upside down notes",
"250": "난이도", 
"251": "PARTICULAR",
"252": "도움(말)", 
"253": "초기화", 
"254": "스코어 부스트", 
"255": "이 모드는 아직 네게 안 어울려", 
"300": "키바인딩", 
"301": "[Esc] 를 누루면 리셋 됩니다", 
"302": "이 오프셋을 써 보세요: %d", 
"303": "정말로 종료하실건가요?", 
"304": "현재 위치로 나가기", 
"305": "점수", 
"306": "콤보", 
"307": "정확도", 
"308": "채보 오프셋", 
"309": "배경 밝기", 
"310": "완료", 
"311": "Watch Player",
"312": "Start Live Streaming",
"313": "The Host is offline",
"314": "Thank you for watching",
"315": "The Host has paused",
"316": "Start watching: ",
"317": "Watch Status Display At",
"318": "Top",
"319": "Left",
"320": "Right",
"321": "Hide",
"400": "클릭하여 로그인", 
"401": "로그인", 
"402": "프로필", 
"403": "회원가입", 
"404": "유저 이름", 
"405": "비밀번호", 
"406": "까먹었나요?", 
"500": "곡을 <beatmap> 폴더로 추가한 후 F5로 리로드 하세요", 
"501": "곡을 <sdcard/data/malody/beatmap> 폴더로 추가한 후 터치해서 리로드 하세요", 
"502": "곡을 iTunes로 끌어넣고, 터치해서 리로드 하세요", 
"503": "곡을(zip 파일) Malody로 끌어넣고 클릭해서 리로드 하세요", 
"504": "스킨파일을 msz(zip)로 압축후, 채보 폴더에 넣어주세요", 
"505": "커스텀 wav파일을 <skin> 폴더로 넣어주세요", 
"506": "오디오 오프셋 수정", 
"507": "노트와 빨간선이 겹칠때 F키 또는 화면을 터치하세요", 
"600": "전체", 
"601": "제목", 
"602": "길이", 
"603": "BPM", 
"604": "불러온 시간", 
"605": "랭킹 지원 채보", 
"606": "베타 상태", 
"607": "알파 상태", 
"608": "오프라인 채보", 
"609": "업데이트", 
"650": "Ascending",
"651": "Descending",
"700": "지원", 
"701": "이 채보가 마음에 드시면 50골드를 기부해주세요", 
"702": "기록 갱신: #%d", 
"703": "내 온라인 최고기록 %d (+%d)", 
"704": "후원 성공", 
"705": "다시하기", 
"706": "업로드 중", 
"707": "미등록 채보", 
"708": "업로드 실패", 
"709": "추천", 
"710": "비추천", 
"711": "댓글쓰기", 
"712": "이 채보는 잘 만들어 졌고, 다른 사람들에게도 추천합니다.", 
"713": "이 채보는 문제가 있어 수정이 필요합니다.", 
"714": "웹사이트에 이 채보에 대한 의견을 남기기", 
"715": "리뷰", 
"716": "추출하기:", 
"717": "글로벌 랭킹:", 
"718": "리플레이", 
"719": "글로벌 랭킹", 
"720": "50골드 기부", 
"721": "500골드 기부", 
"722": "채보 추천 취소", 
"723": "채보 비추천 취소", 
"724": "취소", 
"725": "계속하기", 
"726": "상대방의 랭크 표시", 
"727": "스코어 업로드 완료", 
"800": "다른 플레이어들과 채팅을 하시려면 로그인을 하세요", 
"801": "여기는 다국가 채팅채널입니다. 외국인 (유사)비하발언과 한국어 사용을 금합니다.", 
"802": "친구추가", 
"803": "친구", 
"804": "다른 친구와 동시에 친구인 사람", 
"805": "업적", 
"806": "퍼즐", 
"807": "로그아웃", 
"808": "멀티플레이 방", 
"809": "방 만들기", 
"810": "현재 방 목록", 
"811": "방 이름", 
"812": "플레이어들", 
"813": "기다리는 중...", 
"814": "플레이 중", 
"815": "시작하지 않은 방을 보기", 
"816": "준비", 
"817": "준비 취소", 
"818": "시작", 
"819": "플레이어 강퇴", 
"820": "호스트 전달", 
"821": "점수 기록 모드", 
"822": "높은 점수 순서", 
"823": "높은 콤보 순서", 
"824": "높은 정확도 순서", 
"825": "노트 숨기기", 
"826": "음소거", 
"827": "팀으로 플레이", 
"828": "혼자 플레이", 
"829": "듀얼 팀 플레이", 
"830": "모드", 
"831": "마지막 플레이", 
"832": "%d일 전", 
"833": "%d시간 전", 
"834": "%d분 전", 
"835": "추가된 시각", 
"836": "최종 플레이 시각", 
"837": "선택된 차트가 없습니다", 
"838": "방 입장", 
"839": "%d번 연속 승리중!", 
"840": "%d년 전", 
"841": "모든 채보 보기", 
"842":"Show review charts",
"843": "락걸린 방", 
"844": "방 비밀번호를 입력해 주십시오", 
"845":"Played",
"846": "채보를 시도해본 적이 있습니다", 
"847": "랭커", 
"848": "채보", 
"849": "퀘스트", 
"850": "퍼즐", 
"851": "프로필", 
"852": "골드", 
"853": "메모", 
"854": "프로필 수정", 
"855": "방 선택 또는 생성", 
"856": "공용 방", 
"857": "성", 
"858": "생일", 
"859": "국적", 
"860":"Profile Content",
"861": "남성", 
"862": "여성", 
"863": "Select or create a room",
"864": "Select Song",
"865": "Select Chart",
"866": "10-Player Room",
"867": "Dan Records",
"868": "Are you sure to delete your account with play data",
"869": "Thank You for Playing!",
"900": "온라인 모드", 
"901": "오프라인 모드", 
"902": "오프셋 측정기", 
"903": "\"시작\"을 클릭하면 박자가 시작됩니다", 
"904": "리듬에 따라 화면을 터치하거나 F키를 누르면 안정적인 오프셋을 얻을 수 있습니다", 
"905": "시작", 
"906": "리셋", 
"907": "노트 보이기", 
"908": "효과음 듣기", 
"909": "F키를 박자에 맞춰 눌러주세요", 
"910": "설정", 
"911": "채팅", 
"912": "네트워크", 
"913": "모드", 
"914": "로비", 
"915": "방", 
"916": "프로필", 
"917": "결과", 
"918": "스킨", 
"919": "스토어", 
"920": "퀘스트", 
"921": "채보", 
"922": "곡", 
"923": "새로운 소식", 
"924": "제출", 
"925": "컬렉션", 
"926": "폴더 편집기", 
"927": "아이템 상점",
"1000": "로그인 해 주세요.", 
"1001": "기다려주세요.", 
"1002": "박자에 따라 화면을 터치하거나 F키를 눌러 노트와 빨간선을 겹치게 해주세요", 
"1003": "타격이 일정하지 않아 부정확한 오프셋이 나왔습니다", 
"1004": "Malody가 자동으로 조정하게 하겠습니까?", 
"1005": "이 채보를 가지고 있지 않아요", 
"1006": "자동으로 오프셋 조정하기", 
"1007": "플레이하며 오디오 오프셋을 자동으로 조정합니다", 
"1008": "새로운 키사운드 엔진은 키사운드된 맵을 플레이할때 더 나은 플레이 경험을 제공합니다", 
"1009": "Malody는 현재 최신버전입니다", 
"1010": "Malody 스토어에 오신것을 환영합니다! 다음은 가장 최근에 랭크된 80개의 비트맵입니다", 
"1011": "이 채보를 플레이하려면 빠르게 두번 누르세요", 
"1012": "타임아웃", 
"1013": "원활한 게임플레이를 위해 플레이하기전에 오프셋 마법사를 실행하시는걸 추천합니다. 오프셋 마법사를 실행할 시 현재의 오프셋은 초기화됩니다", 
"1014": "기본값", 
"1015": "[스페이스바]를 눌러 결과창으로 이동합니다", 
"1016": "탭하여 결과창으로 이동합니다", 
"1017": "게스트", 
"1018": "Malody를 종료하시겠습니까?", 
"1019": "서버 에러", 
"1020": "확인", 
"1021": "취소", 
"1022": "글로벌 오프셋으로 설정", 
"1023": "차트 오프셋으로 설정", 
"1024": "Malody가 곡을 로드하는데 실패했습니다", 
"1025": "재시도", 
"1026": "곡을 삭제합니다", 
"1027": "이 곡으로 채보를 새로 만들겠습니까?", 
"1028": "이 이미지를 배경으로 설정하시겠습니까?", 
"1029": "이 노래의 채보가 존재하지 않습니다", 
"1030": "리플레이를 보시겠습니까?", 
"1031": "무엇을 하시겠습니까?", 
"1032": "스킨 로드가 성공적으로 완료되었습니다", 
"1033": "스킨 로드에 실패하였습니다", 
"1034": "이 스킨을 삭제하시겠습니까?", 
"1035": "채보의 게임모드를 선택하십시요", 
"1036": "이 라인을 제거하시면 현재 라인의 모든 노트가 사라집니다. 계속하시겠습니까?", 
"1037": "이 포맷의 편집 기능은 베타 상태에 있습니다!", 
"1038": "이 곡의 모든 채보를 표시:\n랭크 된 차트 - 편집자들이 공인한 차트, 점수 인정\n베타/알파: 미완성 채보", 
"1039": "타임라인을 내려 복사 버튼을 다시 눌러 복사 지점의 끝을 지정하십시오.", 
"1040": "[붙여넣기]버튼으로 붙여넣으십시오.", 
"1041": "계속하시려면 클릭하십시오.", 
"1042": "채팅하시려면 누르십시오.", 
"1043": "성공적이었습니다!", 
"1044": "채보 들여오기 성공!", 
"1045": "채보 들여오기 실패!", 
"1046": "디스크 모드에서 또 다른 스크래치 키를 설정", 
"1047": "Malody는 안드로이드 OTG 형식 키보드를 지원합니다. 키보드가 연결되있는지 확인해주시고 플레이 해 주시기 바랍니다.", 
"1048": "퍼블릭 채널(채팅)에서 알림이 왔습니다", 
"1049": "Malody가 마음에 드신다면, Malody를 위해 앱스토어나 플레이 스토어에 댓글을 달아 다른 유저들에게도 추천해주세요!", 
"1051": "OK, 지금 하세요", 
"1052": "링 모드 프리뷰", 
"1053": "이 기능을 쓰기 전에, 기기가 ASIO 출력 모드를 지원하는지 확인해주십시오", 
"1054": "Malody를 재시작해야 적용됩니다", 
"1055": "Malody는 모든 리듬 게이머에게 선물이 되기를 바랍니다!", 
"1056": "스킨 가격 : %d 골드", 
"1057": "오프셋을 변경:", 
"1058": "로그인 중", 
"1059": "로그인 됨", 
"1060": "난이도를 선택하여 주십시오", 
"1061": "준비 상태를 취소하여 주십시오", 
"1062": "플레이어들이 준비되지 않았습니다", 
"1063": "다운로드에 추가되었습니다.", 
"1064": "온라인 서버 연결 성공", 
"1065": "호스트가 당신으로 변경됬습니다", 
"1066": "차트를 다운로드 받기 위한 골드가 부족하군요! 일일 퀘스트나 랭크된 차트들을 플레이 하며 골드를 모으실 수 있습니다.", 
"1067": "빠른 답장", 
"1068": "준비 완료!", 
"1069": "시작하죠", 
"1070": "잠시만요! 1분만...", 
"1071": "이 채보 너무 어려워요.", 
"1072": "이 채보 너무 쉬워요.", 
"1073": "좋은 매치였네요.", 
"1074": "다시 플레이하죠.", 
"1075":"We are in Early Access!\nThis means not every functionality of the game may work properly, but please make sure to report what you found annoying or simply wrong to you.\nThanks for playing Malody, and hope you will be back when the game is complete!",
"1100": "진짜 로그아웃 하시겠습니까?", 
"1101": "키 설정 초기화", 
"1102": "채보 새로고침은 시간이 좀 걸랄 수 있습니다. 계속하시겠습니까?", 
"1103": "미션 클리어!", 
"1104": "퍼즐조각을 다 모았어요!", 
"1105": "컬렉션에 추가", 
"1106": "프로필을 저장할 수 없어요", 
"1107": "1달 커스텀 배너를 위해 5000골드를 지불하시겠습니까?", 
"1108": "골드가 충분하지 않습니다", 
"1109": "닉네임 변경을 위해 80000골드를 지불하시겠습니까? (한번 바꾸시면 180일동안 수정하실 수 없습니다)", 
"1110": "방을 나가시겠습니까?", 
"1111":"The feature is under development :)",
"1112": "지금 방에 들어가계시지 않습니다", 
"1113": "슬롯 하나에 %d골드를 지불해야합니다", 
"1114": "성공적으로 결제되었습니다", 
"1115": "시스템 에러로 결제가 취소되었습니다", 
"1116": "패스워드 리셋 이메일이 발송되었습니다", 
"1117": "Are you sure to clear local scores?",
"1118": "Purchase Successful",
"1119": "With Turbo Mode, you are free to change any judge rules, but the score will not be accepted by server",
"1120": "Judge At End",
"1121": "Unique Finger",
"1122": "Early Miss",
"1123": "Disable Pause",
"1124": "Audio Speed",
"1125": "Scanning chart folder(s)",
"1126": "Chart refresh completed",
"1127": "Saved to:",
"1128": "New version available",
"1129": "Pause and Continue is disabled",
"1130": "Only Players on Malody V can enter 10-player room",
"1131": "Share success",
"1200":"Choose Action",
"1201":"Choose Sort Type",
"1202": "계속 진행하시겠습니까?", 
"1203": "모드 선택", 
"1204":"Choose Import Content",
"1205": "채보 스타일 선택", 
"1206": "업로딩을 취소할까요?", 
"1207": "Select how much gold to donate",
"1208": "Select mute day(s)",
"1209": "Shortcut",
"1210": "Upload And Share chart to other players",
"1211": "Are you sure to share the skin to workshop",
"1300": "Masterpiece",
"1301": "Very Positive",
"1302": "Positive",
"1303": "Mostly Positive",
"1304": "Mixed",
"1305": "Mostly Negative",
"1306": "Negative",
"1307": "Very Negative",
"2000": "삭제를 실패했습니다", 
"2001": "스텝매니아 차트를 지울 수 없습니다", 
"2002": "메세지 전송 실패", 
"2003": "클라이언트 버전이 너무 낮습니다. 최신 버전으로 업데이트 해 주십시오", 
"2004": "미등록 차트입니다", 
"2005": "로그인 실패: 나중에 다시 시도해주세요", 
"2006": "로그인 실패: 아이디 또는 비밀번호를 다시 확인해주세요", 
"2007": "시작한 지점보다 뒤의 지점을 선택해 주십시오", 
"2008": "끝내는 지점 전의 노트를 모두 없애주십시오", 
"2009": "파일을 차트 폴더로 복사할 수 없습니다", 
"2010": "롱노트를 먼저 놓으십시오", 
"2011": "여기에 노트를 놓을 수 없습니다", 
"2012": "jpg/png 이미지만 지원합니다", 
"2013": "패드/매니아/캐치 모드만 지원합니다", 
"2014": "mp3/ogg 오디오 포맷만 지원합니다", 
"2015": "sid가 잘못되었습니다", 
"2016": "cid가 잘못되었습니다", 
"2017": "이 채보의 주인이 아닙니다", 
"2018": "채보 메타를 다시 확인해주세요", 
"2019": "이미 랭크된 채보를 업로드할 수 없습니다", 
"2020": "서버 오류", 
"2021": "서버로 업로드 할 수 없습니다", 
"2022": "이전 업로드를 먼저 취소해주세요", 
"2023": "BPM 측정 실패", 
"2024": "현재 업로드 되는 비트맵은 서버에 이미 존재합니다. 에디터가 자동으로 이름을 바꾸어 재업로드를 합니다", 
"2025": "2MB 이하의 이미지 파일을 골라주세요", 
"2026": "저장공간이 부족하거나 쓸 수 없습니다", 
"2027": "지원되지 않는 파일 형식입니다", 
"2028": "선택한 노트가 없습니다", 
"2029": "펜딩 슬롯이 꽉찼습니다!\n각 차트는 랭크될때까지 1개의 슬롯을 차지합니다. 업로드된 차트를 랭크시키거나 추가로 슬롯을 구매해주세요.", 
"2030": "랭크되지 않은 맵에 후원을 하실 수 없습니다", 
"2031": "골드가 부족하여 후원을 할 수 없습니다", 
"2032": "이 차트를 리뷰할 수 없습니다", 
"2033": "서버와의 연결이 끊겻습니다", 
"2034": "현재 위치에 BPM을 추가할 수 없습니다", 
"2035": "BPM값이 잘못되었습니다", 
"2036": "이 작업은 수행할 수 없습니다.", 
"2037": "편집은 활동적인 유저에게만 가능합니다", 
"2038": "BGA는 720p@25fps 이하로 해주십시오", 
"2039": "Malody 채보가 아닌 경우 복사가 불가능합니다", 
"2040": "로컬 스킨의 경우 모드 선택이 불가능합니다", 
"2041": "골드가 부족합니다", 
"2042": "파일 다운로드가 불가능합니다", 
"2043": "방에 들어갈 수가 없습니다", 
"2044": "방을 새로 만들 수가 없습니다", 
"2045": "방의 이름을 입력하십시오", 
"2046": "이미 방에 들어가 있습니다", 
"2047": "리플레이 파일 재생이 불가능합니다", 
"2048": "아무것도 없는 채보는 플레이가 불가능합니다", 
"2049": "채보 로딩 실패", 
"2050": "점수를 올리기 위해서는 다이나믹 오프셋 설정을 꺼야 합니다", 
"2052": "방이 꽉 찼습니다.", 
"2053": "점수가 너무 낮은 바람에 점수 등록에 실패했습니다!", 
"2054": "이 기능은 베타 버전입니다", 
"2055": "스토어에 존재하지 않는 차트입니다", 
"2056": "노트를 추가해주세요", 
"2057": "이미 6개의 차트가 대기열에 존재합니다", 
"2058": "최신 버전으로 업데이트해야 사용 가능한 기능입니다", 
"2059": "잘못된 비밀번호입니다!", 
"2060": "어떤 팀의 팀원이 부족합니다. 맞춰주세요!", 
"2061": "[에러]차트는 제대로 된 곡 제목, 음악가, 그리고 버전 등이 필요합니다", 
"2062": "[에러]이 차트는 오버랩된 노트가 존재합니다", 
"2063": "[수정 사항]배경 이미지를 추가해 주세요", 
"2064": "[에러]차트들은 반드시 60초를 넘어야 하고 노트 수도 일정량을 넘어야 합니다", 
"2100": "슬라이드 노트 하나를 선택해 주십시오", 
"2101": "적어도 3개의 스와이프 노트를 선택해 주십시오", 
"2102": "차트를 랭크곡으로 올리기 전에 리뷰해야 합니다", 
"2103": "제목 또는 아티스트에 아스키 코드가 아닌 문자가 포함되어있습니다", 
"2104": "로그인 실패: 정지당하셨습니다!", 
"2105": "메인 설명을 입력해주세요", 
"2106": "비밀번호는 8글자보다 짧으면 안됩니다", 
"2107": "비밀번호가 서로 맞지 않습니다", 
"2108": "이 닉네임은 이미 사용중입니다", 
"2109": "이 이메일은 이미 사용중입니다", 
"2110": "닉네임에는 a~z, 0~9 그리고 []()-_＠ 문자만이 허용되며 3글자보다 짧으면 안됩니다", 
"2111": "이메일 주소가 잘못됬습니다", 
"2112": "업로드에 실패하였습니다", 
"2113": "Failed to convert audio file",
"2114": "채보 하나를 선택하세요", 
"2115": "Wrong date format",
"2116": "You have changed username in 180 days",
"2117": "Failed to upload more charts due to some reasons",
"2118": "Please select Store Server from settings",
"2119": "Can not donate to your self",
"2120": "Please submit score before donation",
"2121": "You have donated 1000 gold to the chart",
"2122": "Invalid Host or Incompatible API",
"2123": "The server is about to restart, multiplayer has been disabled",
"2124": "Can not retrive file from server",
"2125": "Can not connect to Steam",
"2126": "You have no permission",
"2127": "Please select one skin",
"2128": "Can not find proper info for the skin",
"2129": "The Host has incompatible API",
"3000": "테스트하기 전에 변경사항이 저장됩니다", 
"3001": "나가기 전에 저장하겠습니까?", 
"3002": "모든 노트를 제거하면 되돌릴 수 없습니다", 
"3003": "설정 저장 후 나가기", 
"3004": "제목", 
"3005": "아티스트", 
"3006": "오디오 파일", 
"3007": "커버 파일", 
"3008": "배경이미지", 
"3009": "BPM", 
"3010": "오프셋", 
"3011": "저장하기", 
"3012": "정보", 
"3013": "서버로 업로드하기", 
"3014": "모든 노트 제거", 
"3015": "자동 감지", 
"3016": "타임라인을 스크롤하여 끝지점을 선택하시오", 
"3017": "현재 위치에서부터 테스트하기", 
"3018": "처음부터 테스트하기", 
"3020": "업로드 성공", 
"3021": "저장 완료", 
"3022": "업로드 취소됨", 
"3023": "업로드를 취소하시겠습니까?", 
"3024": "자동 BPM측정 성공!", 
"3025": "결과 적용", 
"3026": "오차:", 
"3027": "매핑에 처음이시라면 에디터를 이용하여 자동으로 오프셋과 BPM을 측정하는것을 권장합니다. 이 기능은 에디터 내의 메뉴에서 찾으실 수 있습니다. 매뉴얼 설정은 메뉴의 Meta에서 하실 수 있습니다", 
"3028": "내 차트를 랭크시키려면?", 
"3029": "온라인 차트 페이지를 보기", 
"3030": "칼럼", 
"3031": "저장하고 나가기", 
"3032": "저장 안하고 나가기", 
"3033": "펜딩 슬롯 구입하기", 
"3034": "현재 펜딩 슬롯:", 
"3035": "나누기", 
"3036": "속도", 
"3037": "기타 옵션", 
"3038": "파일 리스트", 
"3039": "<export> 폴더로 성공적으로 추출되었습니다", 
"3040": "보내기 실패", 
"3041": "채보를 패키지로 추출하기", 
"3042": "<Documents/export> 폴더로 추출에 성공 했습니다", 
"3043": "자동 저장 활성화", 
"3044": "노트 고정", 
"3045": "속도 줄이기", 
"3046": "같은 버튼을 한번 더 눌러서 끝을 설정해 주십시오", 
"3047": "선의 끝", 
"3048": "앗! 야생의 MARLO가 튀어나왔다!", 
"3049":"Bar Line Begin At",
"3050":"Set from Current Beat",
"3051": "친 횟수", 
"3052": "제출", 
"3053": "심의를 위한 채보 제출", 
"3054": "심의 대기중", 
"3055": "심의중", 
"3056": "돌려받음(거부)", 
"3057": "기록 없음", 
"3058":"Mark as Review",
"3059":"Mark as Reject",
"3060": "제출 취소", 
"3061": "개발사와 연락", 
"3062": "개발자와 연락", 
"3063": "채보 다운로드", 
"3064": "복사 부분 선택", 
"3065": "붙여넣기", 
"3066": "자르기", 
"3067":"Flip notes horizontal",
"3068":"Grid settings",
"3069":"Grid lines",
"3070":"Grid align",
"3071":"Slide modify",
"3072":"Slide to Wipe",
"3073":"Wipe to Slide",
"3074":"Preview time",
"3075": "원제", 
"3076": "원작자", 
"3077":"Single Step",
"3078": "제작자", 
"3079": "업로드", 
"3080": "테스트 플레이", 
"3081": "실행 취소", 
"3082": "재실행", 
"3083": "BPM Detection",
"3084": "Public Keymap",
"3085": "Current Mode Keymap",
"3086": "추가", 
"3087": "삭제", 
"3088": "Apply BPM detection result to main timing point?",
"3089": "Full Divide Set",
"3090": "Do AI Review",
"3091": "Grid Scale",
"3092": "More Action",
"3093": "Show Statistics",
"3094": "Note Thickness",
"3095": "Scroll Multiplier",
"3096": "Note Align to Grid",
"3097": "Peer Review",
"3098": "Related Notes",
"3099": "Related Time",
"3100": "Reply",
"3101": "Issue Label",
"3102": "Open",
"3103": "Closed",
"3104": "Reopen",
"3105": "Invalid",
"3500": "저장", 
"3501": "테스트", 
"3502": "",
"3503": "음량+", 
"3504": "음량-", 
"3505": "Key Volume+",
"3506": "Key Volume-",
"3507": "속도+", 
"3508": "속도-", 
"3509": "재생/일시중지", 
"3510": "Divide+",
"3511": "Divide-",
"3512": "복사", 
"3513": "붙여넣기", 
"3514": "Note Tool",
"3515": "Hold Tool",
"3516": "선택 툴", 
"3517": "삭제 툴", 
"3518": "실행 취소", 
"3519": "재실행", 
"3520": "채보 뒤집기", 
"3521": "Open Bpm List",
"3522": "설명 열기", 
"3523": "Open Upload",
"3524": "Wipe Tool",
"3525": "Slide Tool",
"3526": "Split",
"3527": "Merge",
"3528": "Flick Tool",
"3529": "Change Size",
"3530": "Add Don",
"3531": "Add Ka",
"3532": "Add Roll",
"3533": "풍선 추가", 
"3534": "공간 추가", 
"3535": "왼쪽으로 이동", 
"3536": "오른쪽으로 이동", 
"3537": "자르기", 
"3538": "Delete Selects",
"3539": "Scale+",
"3540": "Scale-",
"3541": "Add Issue",
"3542": "Mute Key Sound",
"3543": "More Action",
"3600": "Back",
"3601": "Select Up",
"3602": "Select Down",
"3603": "Confirm",
"3604": "Toggle Play",
"3605": "Play Next",
"3606": "Play Last",
"3607": "Refresh Charts",
"3608": "Screenshot",
"3609": "Quick Retry",
"4000": "불명", 
"4001": "아시아", 
"4002": "아프리카", 
"4003": "북미", 
"4004": "남미", 
"4005": "유럽", 
"4006":"Australia",
"4007":"Japan",
"4008":"China",
"4009":"United States",
"4010":"Taiwan (China)",
"4011":"Korea",
"4012":"Germany",
"4013":"Russian",
"4014":"Poland",
"4015":"France",
"4016":"Hong Kong (China)",
"4017":"Canada",
"4018":"Chile",
"4019":"Indonesia",
"4020":"Brazil",
"4021":"Thailand",
"4022":"Italy",
"4023":"United Kingdom",
"4024":"Argentina",
"4025":"Philippines",
"4026":"Finland",
"4027":"Netherlands",
"4028":"Malaysia",
"4029":"Spain",
"4030":"Mexico",
"4031":"Sweden",
"4032":"Singapore",
"4033":"New Zealand",
"4034":"Vietnam",
"4035":"Belgium",
"4036":"Switzerland",
"4037":"Austria",
"4038":"Bulgaria",
"4039": "Macau (China)",
"5000": "Welcome to Malody V, Would you like a tutorial?",
"5001": "Import local charts/skins/music etc.",
"5002": "Filter song list by favourite",
"5003": "Filter song list by play mode",
"5004": "Multiplayer lobby, Dan room",
"5005": "View chart/skin shared by other players",
"5006": "Daily quests",
"5007": "News from server",
"5008": "View friends or search other players",
"5009": "Chat with other online players",
"5010": "View download records, music controller",
"5011": "Add selected chart to collection",
"5012": "Change play difficulty/mods",
"5013": "View chart comments, global ranking",
"5014": "Change judge difficulty, custom judgement",
"5015": "Change note speed",
"5016": "Manage/Share chart",
"5017": "More options like offset and graphics are available when the game is paused",
"5018": "Donate gold to chart creator",
"5019": "Recommend/Not Recommend the chart to other players",
"5020": "Share chart replay",
"5021": "View technical statistics"
}
