{
  "composer.dialog.del": "Are you sure to delete the module?",
  "composer.dialog.holder": "Choose PlaceHolder",
  "composer.dialog.pause": "Pause is missing in skin. Are you sure to continue?",
  "composer.dialog.res": "Choose Internal Image",
  "composer.ele.acc": "Accuracy",
  "composer.ele.bg": "Play Field Background",
  "composer.ele.col": "Pure Color Image",
  "composer.ele.combo": "Combo",
  "composer.ele.cover": "Cover Mask",
  "composer.ele.cus": "Custom",
  "composer.ele.fast": "Hit Fast/Slow",
  "composer.ele.frame": "Image Frames",
  "composer.ele.hit": "Hit Effect",
  "composer.ele.hold": "Hold",
  "composer.ele.hp": "HP Gauge",
  "composer.ele.hp1": "Mask Image",
  "composer.ele.hp1.tip": "Single Image with Mask",
  "composer.ele.img": "Image",
  "composer.ele.judge": "Judgement",
  "composer.ele.meta": "Chart Meta",
  "composer.ele.mp": "Realtime Ranking",
  "composer.ele.note": "Note",
  "composer.ele.num": "Dynamic Number",
  "composer.ele.num.tip": "Use Image as Number Characters",
  "composer.ele.pause": "Pause Button",
  "composer.ele.press": "Press Effect",
  "composer.ele.prog": "Progress",
  "composer.ele.score": "Score",
  "composer.ele.skip": "Skip",
  "composer.ele.text": "Text",
  "composer.ele.text.tip": "Text, Dynamic Text",
  "composer.ele.watch": "Watch Status",
  "composer.err.conflict": "Conflict with existing settings",
  "composer.err.frame": "File name does not meet the format: prefix-number",
  "composer.err.frame.2": "Unable to find matched sequence images",
  "composer.err.frame.3": "Please enter valid frame count",
  "composer.err.jpg": "Please select an image file less than 1Mb",
  "composer.err.name": "Please enter name of the skin",
  "composer.err.number": "Needs 0-9 to reach minimal requirement",
  "composer.err.test.1": "Failed to prepare test resource",
  "composer.err.test.2": "No suitable chart for the skin",
  "composer.flag.eq": "Equal (=)",
  "composer.flag.large": "Larger Than (>)",
  "composer.flag.less": "Less Than (<)",
  "composer.flag.neq": "Not Equal (!=)",
  "composer.flag.occur": "Occur",
  "composer.info.cover": "Skin Cover",
  "composer.info.creator": "Creator",
  "composer.info.desc": "Description",
  "composer.info.lock": "Lock Settings",
  "composer.info.lock.tip": "Players can't change settings",
  "composer.info.name": "Skin Name",
  "composer.info.path": "Local Path",
  "composer.label.alpha": "Transparency",
  "composer.label.anchor": "Anchor",
  "composer.label.basic": "Basic Settings",
  "composer.label.cnt": "Content",
  "composer.label.color": "Color",
  "composer.label.count": "Frame Count",
  "composer.label.def": "Default Module",
  "composer.label.dynnum": "Number Settings",
  "composer.label.ele": "Element Metadata",
  "composer.label.fill": "Fill From Left",
  "composer.label.font": "Font",
  "composer.label.fps": "Target FPS",
  "composer.label.fx": "Flip Horizontal",
  "composer.label.fy": "Flip Vertical",
  "composer.label.h": "Height",
  "composer.label.hidedef": "Hide Default Modules",
  "composer.label.img": "Image",
  "composer.label.img.tip": "Select the first image of the sequence",
  "composer.label.imgset": "Image Settings",
  "composer.label.info": "Skin Metadata",
  "composer.label.layer": "Layer",
  "composer.label.loop": "Loop Animation",
  "composer.label.mod": "Skin Modules",
  "composer.label.order": "Order/ZIndex",
  "composer.label.pad": "Padding",
  "composer.label.pivot": "Pivot",
  "composer.label.pos": "Position",
  "composer.label.req": "Requirements",
  "composer.label.req.1": "Choose Source",
  "composer.label.req.2": "Choose Compare Flag",
  "composer.label.req.3": "Choose Value",
  "composer.label.res": "Resource",
  "composer.label.res.b": "Resource - Body",
  "composer.label.res.h": "Resource - Head",
  "composer.label.res.r": "Resource - Rear",
  "composer.label.rotate": "Rotation",
  "composer.label.sim": "Hide Preview Images",
  "composer.label.size": "Size",
  "composer.label.slice": "Slice(Left/Up/Right/Bottom)",
  "composer.label.temp": "Preview Value",
  "composer.label.text": "Text Settings",
  "composer.label.thick": "Note Thickness",
  "composer.label.trigger": "Triggers",
  "composer.label.type": "Module Types",
  "composer.label.usage": "Choose Usage",
  "composer.label.w": "Width",
  "composer.layer.an": "Above Notes",
  "composer.layer.bg": "Background",
  "composer.layer.pf": "Play Field",
  "composer.layer.tp": "Top",
  "composer.res.ava": "User Avatar",
  "composer.res.cover": "Song Cover",
  "composer.source.acc": "Accuracy",
  "composer.source.art": "Song Artist",
  "composer.source.arto": "Song Artist(Original)",
  "composer.source.best": "Accumulated Best",
  "composer.source.cool": "Accumulated Cool",
  "composer.source.creator": "Chart Creator",
  "composer.source.fast": "Hit Fast",
  "composer.source.good": "Accumulated Good",
  "composer.source.h": "Screen Height",
  "composer.source.hp": "HP Value",
  "composer.source.judge": "Hit Result (Valid Judge)",
  "composer.source.judge.1": "Holding Bonus",
  "composer.source.judge.2": "Flick Bonus",
  "composer.source.kps.cur": "Realtime KPS",
  "composer.source.kps.max": "Max KPS",
  "composer.source.kps.total": "Total Input",
  "composer.source.miss": "Accumulated Miss",
  "composer.source.plat": "Platform",
  "composer.source.press": "Press Down",
  "composer.source.prog": "Progress (%)",
  "composer.source.rat": "Screen Ratio (w/h)",
  "composer.source.score": "Score",
  "composer.source.slow": "Hit Slow",
  "composer.source.time": "Audio Time",
  "composer.source.title": "Song Title",
  "composer.source.titleo": "Song Title(Original)",
  "composer.source.ver": "Chart Version",
  "composer.source.w": "Screen Width",
  "composer.source.x": "Note Horizontal Position",
  "config.bind.tip": "Also access Key Binding from Setting",
  "config.exp.cube6k": "Play 6K As Cube",
  "config.host": "Official",
  "config.play": "Access from Play - Pause - Setting⚙",
  "config.prelude": "Skip Prelude",
  "edit.err.fatal": "Can not edit this file",
  "edit.err.toolong": "Meta that is too long is not saved",
  "edit.tip.open": "Open",
  "edit.tip.play": "Play",
  "edit.tip.save": "Save",
  "import.error": "Failed",
  "import.file": "Files Received:",
  "import.finish": "Finish",
  "import.init": "Wait to Start",
  "import.noip": "No IP (Not in WIFI/LAN)",
  "import.run": "Working",
  "import.start": "Start",
  "import.title": "Share Server",
  "play.config.cube.init": "Enable Incubation Animation",
  "play.config.graphic.tip": "Keep it to 0 if you don't know the meaning",
  "play.config.light": "Hit Light Transparency",
  "result.tip.mm": "MM Point:",
  "skin.local.beta": "Skin support is in BETA",
  "skin.local.create": "Skin Composer",
  "top.tip.collect": "Collection",
  "top.tip.dl": "Download",
  "top.tip.import": "Import",
  "top.tip.logout": "Logout",
  "top.tip.mod": "Mod",
  "top.tip.mode": "Mode",
  "top.tip.search": "Search",
  "top.tip.selectok": "Done",
  "top.tip.setting": "Setting",
  "top.tip.sort": "Sort"
}